2024-02-11 00:48:25.423 +04:00 [WRN] 'AddEntityFramework*' was called on the service provider, but 'UseInternalServiceProvider' wasn't called in the DbContext options configuration. Consider removing the 'AddEntityFramework*' call, as in most cases it's not needed and may cause conflicts with other products and services registered in the same service provider.
2024-02-11 00:48:25.578 +04:00 [INF] Migrating database associated with context CrocusoftReportDbContext
2024-02-11 00:48:27.576 +04:00 [WRN] Entity 'AppUser' has a global query filter defined and is the required end of a relationship with the entity 'ProjectUser'. This may lead to unexpected results when the required entity is filtered out. Either configure the navigation as optional, or define matching query filters for both entities in the navigation. See https://go.microsoft.com/fwlink/?linkid=2131316 for more information.
2024-02-11 00:48:27.578 +04:00 [WRN] Entity 'AppUser' has a global query filter defined and is the required end of a relationship with the entity 'Report'. This may lead to unexpected results when the required entity is filtered out. Either configure the navigation as optional, or define matching query filters for both entities in the navigation. See https://go.microsoft.com/fwlink/?linkid=2131316 for more information.
2024-02-11 00:48:28.120 +04:00 [INF] Entity Framework Core 6.0.10 initialized 'CrocusoftReportDbContext' using provider 'Microsoft.EntityFrameworkCore.SqlServer:6.0.9' with options: MigrationsAssembly=CrocusoftReport.Infrastructure.Migrations 
2024-02-11 00:48:32.047 +04:00 [INF] Executed DbCommand (589ms) [Parameters=[], CommandType='"Text"', CommandTimeout='30']
SELECT 1
2024-02-11 00:48:32.703 +04:00 [INF] Executed DbCommand (605ms) [Parameters=[], CommandType='"Text"', CommandTimeout='30']
SELECT OBJECT_ID(N'[__EFMigrationsHistory]');
2024-02-11 00:48:32.992 +04:00 [INF] Executed DbCommand (233ms) [Parameters=[], CommandType='"Text"', CommandTimeout='30']
SELECT [MigrationId], [ProductVersion]
FROM [__EFMigrationsHistory]
ORDER BY [MigrationId];
2024-02-11 00:48:34.162 +04:00 [INF] Executed DbCommand (226ms) [Parameters=[], CommandType='"Text"', CommandTimeout='30']
SELECT TOP(1) [u].[id], [u].[email], [u].[first_name], [u].[is_active], [u].[IsChanged], [u].[IsDeleted], [u].[last_name], [u].[otp], [u].[otp-expiration], [u].[password_hash], [u].[refresh_token], [u].[role_id], [u].[team_id]
FROM [users] AS [u]
WHERE [u].[IsDeleted] = CAST(0 AS bit)
2024-02-11 00:48:34.405 +04:00 [INF] Migrated database associated with context CrocusoftReportDbContext
2024-02-11 00:48:34.834 +04:00 [INF] User profile is available. Using 'C:\Users\user\AppData\Local\ASP.NET\DataProtection-Keys' as key repository and Windows DPAPI to encrypt keys at rest.
2024-02-11 00:48:36.669 +04:00 [INF] Request starting HTTP/2 GET https://localhost:7130/swagger/index.html - -
2024-02-11 00:48:37.219 +04:00 [WRN] Unable to configure browser refresh script injection on the response. Consider manually adding '<script src="/_framework/aspnetcore-browser-refresh.js"></script>' to the body of the page.
2024-02-11 00:48:37.229 +04:00 [INF] Request starting HTTP/2 GET https://localhost:7130/_vs/browserLink - -
2024-02-11 00:48:37.238 +04:00 [INF] Request finished HTTP/2 GET https://localhost:7130/swagger/index.html - - - 200 - text/html;charset=utf-8 577.3513ms
2024-02-11 00:48:37.268 +04:00 [INF] Request finished HTTP/2 GET https://localhost:7130/_vs/browserLink - - - 200 - text/javascript;+charset=UTF-8 39.8384ms
2024-02-11 00:48:37.416 +04:00 [INF] Request starting HTTP/2 GET https://localhost:7130/swagger/v1/swagger.json - -
2024-02-11 00:48:37.737 +04:00 [INF] Request finished HTTP/2 GET https://localhost:7130/swagger/v1/swagger.json - - - 200 - application/json;charset=utf-8 321.0356ms
2024-02-11 01:20:23.299 +04:00 [WRN] 'AddEntityFramework*' was called on the service provider, but 'UseInternalServiceProvider' wasn't called in the DbContext options configuration. Consider removing the 'AddEntityFramework*' call, as in most cases it's not needed and may cause conflicts with other products and services registered in the same service provider.
2024-02-11 01:20:23.428 +04:00 [INF] Migrating database associated with context CrocusoftReportDbContext
2024-02-11 01:20:25.315 +04:00 [WRN] Entity 'AppUser' has a global query filter defined and is the required end of a relationship with the entity 'ProjectUser'. This may lead to unexpected results when the required entity is filtered out. Either configure the navigation as optional, or define matching query filters for both entities in the navigation. See https://go.microsoft.com/fwlink/?linkid=2131316 for more information.
2024-02-11 01:20:25.317 +04:00 [WRN] Entity 'AppUser' has a global query filter defined and is the required end of a relationship with the entity 'Report'. This may lead to unexpected results when the required entity is filtered out. Either configure the navigation as optional, or define matching query filters for both entities in the navigation. See https://go.microsoft.com/fwlink/?linkid=2131316 for more information.
2024-02-11 01:20:25.764 +04:00 [INF] Entity Framework Core 6.0.10 initialized 'CrocusoftReportDbContext' using provider 'Microsoft.EntityFrameworkCore.SqlServer:6.0.9' with options: MigrationsAssembly=CrocusoftReport.Infrastructure.Migrations 
2024-02-11 01:20:27.785 +04:00 [INF] Executed DbCommand (285ms) [Parameters=[], CommandType='"Text"', CommandTimeout='30']
SELECT 1
2024-02-11 01:20:28.108 +04:00 [INF] Executed DbCommand (283ms) [Parameters=[], CommandType='"Text"', CommandTimeout='30']
SELECT OBJECT_ID(N'[__EFMigrationsHistory]');
2024-02-11 01:20:28.367 +04:00 [INF] Executed DbCommand (236ms) [Parameters=[], CommandType='"Text"', CommandTimeout='30']
SELECT [MigrationId], [ProductVersion]
FROM [__EFMigrationsHistory]
ORDER BY [MigrationId];
2024-02-11 01:20:29.097 +04:00 [INF] Executed DbCommand (231ms) [Parameters=[], CommandType='"Text"', CommandTimeout='30']
SELECT TOP(1) [u].[id], [u].[email], [u].[first_name], [u].[is_active], [u].[IsChanged], [u].[IsDeleted], [u].[last_name], [u].[otp], [u].[otp-expiration], [u].[password_hash], [u].[refresh_token], [u].[role_id], [u].[team_id]
FROM [users] AS [u]
WHERE [u].[IsDeleted] = CAST(0 AS bit)
2024-02-11 01:20:29.201 +04:00 [INF] Migrated database associated with context CrocusoftReportDbContext
2024-02-11 01:20:29.493 +04:00 [INF] User profile is available. Using 'C:\Users\user\AppData\Local\ASP.NET\DataProtection-Keys' as key repository and Windows DPAPI to encrypt keys at rest.
2024-02-11 01:20:30.961 +04:00 [INF] Request starting HTTP/2 GET https://localhost:7130/swagger/index.html - -
2024-02-11 01:20:31.534 +04:00 [WRN] Unable to configure browser refresh script injection on the response. Consider manually adding '<script src="/_framework/aspnetcore-browser-refresh.js"></script>' to the body of the page.
2024-02-11 01:20:31.535 +04:00 [INF] Request starting HTTP/2 GET https://localhost:7130/_vs/browserLink - -
2024-02-11 01:20:31.562 +04:00 [INF] Request finished HTTP/2 GET https://localhost:7130/swagger/index.html - - - 200 - text/html;charset=utf-8 608.0158ms
2024-02-11 01:20:31.609 +04:00 [INF] Request finished HTTP/2 GET https://localhost:7130/_vs/browserLink - - - 200 - text/javascript;+charset=UTF-8 74.0184ms
2024-02-11 01:20:31.679 +04:00 [INF] Request starting HTTP/2 GET https://localhost:7130/swagger/v1/swagger.json - -
2024-02-11 01:20:31.910 +04:00 [INF] Request finished HTTP/2 GET https://localhost:7130/swagger/v1/swagger.json - - - 200 - application/json;charset=utf-8 231.1208ms
2024-02-11 01:20:45.528 +04:00 [INF] Request starting HTTP/2 POST https://localhost:7130/auth/admin/token application/json-patch+json 111
2024-02-11 01:20:45.599 +04:00 [INF] CORS policy execution successful.
2024-02-11 01:20:45.612 +04:00 [INF] Executing endpoint 'CrocusoftReport.Controllers.AuthController.Token (CrocusoftReport)'
2024-02-11 01:20:45.974 +04:00 [INF] Route matched with {action = "Token", controller = "Auth"}. Executing controller action with signature System.Threading.Tasks.Task`1[Microsoft.AspNetCore.Mvc.IActionResult] Token(CrocusoftReport.UserDetails.Commands.GetAuthorizationTokenCommand) on controller CrocusoftReport.Controllers.AuthController (CrocusoftReport).
2024-02-11 01:20:46.343 +04:00 [INF] Handling GetAuthorizationTokenCommand
2024-02-11 01:20:46.662 +04:00 [ERR] | RequestId : 0HN1AFODV6VRJ | Message : FluentValidation.ValidationException: Command Validation Errors for type GetAuthorizationTokenCommand
   at CrocusoftReport.Infrastructure.Behaviors.ValidatorBehavior`2.Handle(TRequest request, CancellationToken cancellationToken, RequestHandlerDelegate`1 next) in C:\Users\user\OneDrive - Azerbaijan State Oil and Industry University\Desktop\Last CRM\lastcrmproject\CrocusoftReport.Infrastructure\Behaviors\ValidatorBehavior.cs:line 22
   at CrocusoftReport.Infrastructure.Behaviors.LoggingBehavior`2.Handle(TRequest request, CancellationToken cancellationToken, RequestHandlerDelegate`1 next) in C:\Users\user\OneDrive - Azerbaijan State Oil and Industry University\Desktop\Last CRM\lastcrmproject\CrocusoftReport.Infrastructure\Behaviors\LoggingBehavior.cs:line 17
   at CrocusoftReport.Controllers.AuthController.Token(GetAuthorizationTokenCommand command) in C:\Users\user\OneDrive - Azerbaijan State Oil and Industry University\Desktop\Last CRM\lastcrmproject\CrocusoftReport\Controllers\AuthController.cs:line 39
   at Microsoft.AspNetCore.Mvc.Infrastructure.ActionMethodExecutor.TaskOfIActionResultExecutor.Execute(IActionResultTypeMapper mapper, ObjectMethodExecutor executor, Object controller, Object[] arguments)
   at Microsoft.AspNetCore.Mvc.Infrastructure.ControllerActionInvoker.<InvokeActionMethodAsync>g__Awaited|12_0(ControllerActionInvoker invoker, ValueTask`1 actionResultValueTask)
   at Microsoft.AspNetCore.Mvc.Infrastructure.ControllerActionInvoker.<InvokeNextActionFilterAsync>g__Awaited|10_0(ControllerActionInvoker invoker, Task lastTask, State next, Scope scope, Object state, Boolean isCompleted)
   at Microsoft.AspNetCore.Mvc.Infrastructure.ControllerActionInvoker.Rethrow(ActionExecutedContextSealed context)
   at Microsoft.AspNetCore.Mvc.Infrastructure.ControllerActionInvoker.Next(State& next, Scope& scope, Object& state, Boolean& isCompleted)
   at Microsoft.AspNetCore.Mvc.Infrastructure.ControllerActionInvoker.InvokeInnerFilterAsync()
--- End of stack trace from previous location ---
   at Microsoft.AspNetCore.Mvc.Infrastructure.ResourceInvoker.<InvokeNextExceptionFilterAsync>g__Awaited|26_0(ResourceInvoker invoker, Task lastTask, State next, Scope scope, Object state, Boolean isCompleted) | Header :  Microsoft.AspNetCore.Server.Kestrel.Core.Internal.Http.HttpRequestHeaders
2024-02-11 01:20:46.699 +04:00 [INF] Executing BadRequestObjectResult, writing value of type 'CrocusoftReport.Infrastructure.ErrorHandling.JsonValidationErrorResponse'.
2024-02-11 01:20:46.808 +04:00 [INF] Executed action CrocusoftReport.Controllers.AuthController.Token (CrocusoftReport) in 826.3109ms
2024-02-11 01:20:46.808 +04:00 [INF] Executed endpoint 'CrocusoftReport.Controllers.AuthController.Token (CrocusoftReport)'
2024-02-11 01:20:46.812 +04:00 [INF] Request finished HTTP/2 POST https://localhost:7130/auth/admin/token application/json-patch+json 111 - 400 331 application/json;+charset=utf-8 1284.7151ms
2024-02-11 01:21:12.555 +04:00 [INF] Request starting HTTP/2 POST https://localhost:7130/auth/admin/token application/json-patch+json 64
2024-02-11 01:21:12.557 +04:00 [INF] CORS policy execution successful.
2024-02-11 01:21:12.558 +04:00 [INF] Executing endpoint 'CrocusoftReport.Controllers.AuthController.Token (CrocusoftReport)'
2024-02-11 01:21:12.558 +04:00 [INF] Route matched with {action = "Token", controller = "Auth"}. Executing controller action with signature System.Threading.Tasks.Task`1[Microsoft.AspNetCore.Mvc.IActionResult] Token(CrocusoftReport.UserDetails.Commands.GetAuthorizationTokenCommand) on controller CrocusoftReport.Controllers.AuthController (CrocusoftReport).
2024-02-11 01:21:12.560 +04:00 [INF] Handling GetAuthorizationTokenCommand
2024-02-11 01:21:12.568 +04:00 [INF] Entity Framework Core 6.0.10 initialized 'CrocusoftReportDbContext' using provider 'Microsoft.EntityFrameworkCore.SqlServer:6.0.9' with options: MigrationsAssembly=CrocusoftReport.Infrastructure.Migrations 
2024-02-11 01:21:13.100 +04:00 [INF] Executed DbCommand (306ms) [Parameters=[@__request_Email_0='?' (Size = 100)], CommandType='"Text"', CommandTimeout='30']
SELECT TOP(1) [u].[id], [u].[email], [u].[first_name], [u].[is_active], [u].[IsChanged], [u].[IsDeleted], [u].[last_name], [u].[otp], [u].[otp-expiration], [u].[password_hash], [u].[refresh_token], [u].[role_id], [u].[team_id], [r].[id], [r].[description], [r].[is_deleted], [r].[name]
FROM [users] AS [u]
INNER JOIN [roles] AS [r] ON [u].[role_id] = [r].[id]
WHERE ([u].[IsDeleted] = CAST(0 AS bit)) AND ([u].[email] = @__request_Email_0)
2024-02-11 01:21:14.217 +04:00 [INF] Executed DbCommand (248ms) [Parameters=[@p12='?' (DbType = Int32), @p0='?' (Size = 100), @p1='?' (Size = 100), @p2='?' (DbType = Boolean), @p3='?' (DbType = Boolean), @p4='?' (DbType = Boolean), @p5='?' (Size = 4000), @p6='?' (Size = 4000), @p7='?' (DbType = DateTime2), @p8='?' (Size = 4000), @p9='?' (Size = 4000), @p10='?' (DbType = Int32), @p11='?' (DbType = Int32)], CommandType='"Text"', CommandTimeout='30']
SET NOCOUNT ON;
UPDATE [users] SET [email] = @p0, [first_name] = @p1, [is_active] = @p2, [IsChanged] = @p3, [IsDeleted] = @p4, [last_name] = @p5, [otp] = @p6, [otp-expiration] = @p7, [password_hash] = @p8, [refresh_token] = @p9, [role_id] = @p10, [team_id] = @p11
WHERE [id] = @p12;
SELECT @@ROWCOUNT;
2024-02-11 01:21:14.523 +04:00 [INF] Handled JwtTokenDTO
2024-02-11 01:21:14.523 +04:00 [INF] login isledi
2024-02-11 01:21:14.541 +04:00 [INF] Executing OkObjectResult, writing value of type 'CrocusoftReport.UserDetails.Commands.Models.JwtTokenDTO'.
2024-02-11 01:21:14.548 +04:00 [INF] Executed action CrocusoftReport.Controllers.AuthController.Token (CrocusoftReport) in 1990.167ms
2024-02-11 01:21:14.549 +04:00 [INF] Executed endpoint 'CrocusoftReport.Controllers.AuthController.Token (CrocusoftReport)'
2024-02-11 01:21:14.558 +04:00 [INF] Request finished HTTP/2 POST https://localhost:7130/auth/admin/token application/json-patch+json 64 - 200 702 application/json;+charset=utf-8 2003.8508ms
2024-02-11 13:18:38.569 +04:00 [WRN] 'AddEntityFramework*' was called on the service provider, but 'UseInternalServiceProvider' wasn't called in the DbContext options configuration. Consider removing the 'AddEntityFramework*' call, as in most cases it's not needed and may cause conflicts with other products and services registered in the same service provider.
2024-02-11 13:18:38.692 +04:00 [INF] Migrating database associated with context CrocusoftReportDbContext
2024-02-11 13:18:39.400 +04:00 [WRN] Entity 'AppUser' has a global query filter defined and is the required end of a relationship with the entity 'ProjectUser'. This may lead to unexpected results when the required entity is filtered out. Either configure the navigation as optional, or define matching query filters for both entities in the navigation. See https://go.microsoft.com/fwlink/?linkid=2131316 for more information.
2024-02-11 13:18:39.400 +04:00 [WRN] Entity 'AppUser' has a global query filter defined and is the required end of a relationship with the entity 'Report'. This may lead to unexpected results when the required entity is filtered out. Either configure the navigation as optional, or define matching query filters for both entities in the navigation. See https://go.microsoft.com/fwlink/?linkid=2131316 for more information.
2024-02-11 13:18:39.633 +04:00 [INF] Entity Framework Core 6.0.10 initialized 'CrocusoftReportDbContext' using provider 'Microsoft.EntityFrameworkCore.SqlServer:6.0.9' with options: MigrationsAssembly=CrocusoftReport.Infrastructure.Migrations 
2024-02-11 13:18:41.758 +04:00 [INF] Executed DbCommand (256ms) [Parameters=[], CommandType='"Text"', CommandTimeout='30']
SELECT 1
2024-02-11 13:18:42.036 +04:00 [INF] Executed DbCommand (258ms) [Parameters=[], CommandType='"Text"', CommandTimeout='30']
SELECT OBJECT_ID(N'[__EFMigrationsHistory]');
2024-02-11 13:18:42.290 +04:00 [INF] Executed DbCommand (230ms) [Parameters=[], CommandType='"Text"', CommandTimeout='30']
SELECT [MigrationId], [ProductVersion]
FROM [__EFMigrationsHistory]
ORDER BY [MigrationId];
2024-02-11 13:18:42.922 +04:00 [INF] Executed DbCommand (233ms) [Parameters=[], CommandType='"Text"', CommandTimeout='30']
SELECT TOP(1) [u].[id], [u].[email], [u].[first_name], [u].[is_active], [u].[IsChanged], [u].[IsDeleted], [u].[last_name], [u].[otp], [u].[otp-expiration], [u].[password_hash], [u].[refresh_token], [u].[role_id], [u].[team_id]
FROM [users] AS [u]
WHERE [u].[IsDeleted] = CAST(0 AS bit)
2024-02-11 13:18:43.008 +04:00 [INF] Migrated database associated with context CrocusoftReportDbContext
2024-02-11 13:18:43.230 +04:00 [INF] User profile is available. Using 'C:\Users\user\AppData\Local\ASP.NET\DataProtection-Keys' as key repository and Windows DPAPI to encrypt keys at rest.
2024-02-11 13:18:44.897 +04:00 [INF] Request starting HTTP/2 GET https://localhost:7130/swagger - -
2024-02-11 13:18:44.972 +04:00 [INF] Request:
Protocol: HTTP/2
Method: GET
Scheme: https
PathBase: 
Path: /swagger
Accept: text/html,application/xhtml+xml,application/xml;q=0.9,image/avif,image/webp,image/apng,*/*;q=0.8,application/signed-exchange;v=b3;q=0.7
Host: localhost:7130
User-Agent: Mozilla/5.0 (Windows NT 10.0; Win64; x64) AppleWebKit/537.36 (KHTML, like Gecko) Chrome/121.0.0.0 Safari/537.36
:method: [Redacted]
Accept-Encoding: gzip, deflate, br
Accept-Language: ru-RU,ru;q=0.9,en-US;q=0.8,en;q=0.7
Upgrade-Insecure-Requests: [Redacted]
sec-ch-ua: [Redacted]
sec-ch-ua-mobile: [Redacted]
sec-ch-ua-platform: [Redacted]
sec-fetch-site: [Redacted]
sec-fetch-mode: [Redacted]
sec-fetch-user: [Redacted]
sec-fetch-dest: [Redacted]
2024-02-11 13:18:45.000 +04:00 [INF] Response:
StatusCode: 301
Location: swagger/index.html
2024-02-11 13:18:45.002 +04:00 [INF] HTTP GET /swagger responded 301 in 33.0429 ms
2024-02-11 13:18:45.012 +04:00 [INF] Request starting HTTP/2 GET https://localhost:7130/swagger/index.html - -
2024-02-11 13:18:45.015 +04:00 [INF] Request:
Protocol: HTTP/2
Method: GET
Scheme: https
PathBase: 
Path: /swagger/index.html
Accept: text/html,application/xhtml+xml,application/xml;q=0.9,image/avif,image/webp,image/apng,*/*;q=0.8,application/signed-exchange;v=b3;q=0.7
Host: localhost:7130
User-Agent: Mozilla/5.0 (Windows NT 10.0; Win64; x64) AppleWebKit/537.36 (KHTML, like Gecko) Chrome/121.0.0.0 Safari/537.36
:method: [Redacted]
Accept-Encoding: gzip, deflate, br
Accept-Language: ru-RU,ru;q=0.9,en-US;q=0.8,en;q=0.7
Upgrade-Insecure-Requests: [Redacted]
sec-fetch-site: [Redacted]
sec-fetch-mode: [Redacted]
sec-fetch-user: [Redacted]
sec-fetch-dest: [Redacted]
sec-ch-ua: [Redacted]
sec-ch-ua-mobile: [Redacted]
sec-ch-ua-platform: [Redacted]
2024-02-11 13:18:45.015 +04:00 [INF] Request finished HTTP/2 GET https://localhost:7130/swagger - - - 301 0 - 122.8932ms
2024-02-11 13:18:45.235 +04:00 [INF] Response:
StatusCode: 200
Content-Type: text/html;charset=utf-8
Date: Sun, 11 Feb 2024 09:18:44 GMT
Server: Kestrel
2024-02-11 13:18:45.236 +04:00 [INF] HTTP GET /swagger/index.html responded 200 in 221.7517 ms
2024-02-11 13:18:45.239 +04:00 [WRN] Unable to configure browser refresh script injection on the response. Consider manually adding '<script src="/_framework/aspnetcore-browser-refresh.js"></script>' to the body of the page.
2024-02-11 13:18:45.240 +04:00 [INF] Request finished HTTP/2 GET https://localhost:7130/swagger/index.html - - - 200 - text/html;charset=utf-8 227.9659ms
2024-02-11 13:18:45.249 +04:00 [INF] Request starting HTTP/2 GET https://localhost:7130/swagger/swagger-ui.css - -
2024-02-11 13:18:45.249 +04:00 [INF] Request starting HTTP/2 GET https://localhost:7130/swagger/swagger-ui-bundle.js - -
2024-02-11 13:18:45.249 +04:00 [INF] Request starting HTTP/2 GET https://localhost:7130/swagger/swagger-ui-standalone-preset.js - -
2024-02-11 13:18:45.249 +04:00 [INF] Request:
Protocol: HTTP/2
Method: GET
Scheme: https
PathBase: 
Path: /swagger/swagger-ui-bundle.js
Accept: */*
Host: localhost:7130
User-Agent: Mozilla/5.0 (Windows NT 10.0; Win64; x64) AppleWebKit/537.36 (KHTML, like Gecko) Chrome/121.0.0.0 Safari/537.36
:method: [Redacted]
Accept-Encoding: gzip, deflate, br
Accept-Language: ru-RU,ru;q=0.9,en-US;q=0.8,en;q=0.7
Referer: [Redacted]
sec-ch-ua: [Redacted]
sec-ch-ua-mobile: [Redacted]
sec-ch-ua-platform: [Redacted]
sec-fetch-site: [Redacted]
sec-fetch-mode: [Redacted]
sec-fetch-dest: [Redacted]
2024-02-11 13:18:45.249 +04:00 [INF] Request:
Protocol: HTTP/2
Method: GET
Scheme: https
PathBase: 
Path: /swagger/swagger-ui.css
Accept: text/css,*/*;q=0.1
Host: localhost:7130
User-Agent: Mozilla/5.0 (Windows NT 10.0; Win64; x64) AppleWebKit/537.36 (KHTML, like Gecko) Chrome/121.0.0.0 Safari/537.36
:method: [Redacted]
Accept-Encoding: gzip, deflate, br
Accept-Language: ru-RU,ru;q=0.9,en-US;q=0.8,en;q=0.7
Referer: [Redacted]
sec-ch-ua: [Redacted]
sec-ch-ua-mobile: [Redacted]
sec-ch-ua-platform: [Redacted]
sec-fetch-site: [Redacted]
sec-fetch-mode: [Redacted]
sec-fetch-dest: [Redacted]
2024-02-11 13:18:45.249 +04:00 [INF] Request:
Protocol: HTTP/2
Method: GET
Scheme: https
PathBase: 
Path: /swagger/swagger-ui-standalone-preset.js
Accept: */*
Host: localhost:7130
User-Agent: Mozilla/5.0 (Windows NT 10.0; Win64; x64) AppleWebKit/537.36 (KHTML, like Gecko) Chrome/121.0.0.0 Safari/537.36
:method: [Redacted]
Accept-Encoding: gzip, deflate, br
Accept-Language: ru-RU,ru;q=0.9,en-US;q=0.8,en;q=0.7
Referer: [Redacted]
sec-ch-ua: [Redacted]
sec-ch-ua-mobile: [Redacted]
sec-ch-ua-platform: [Redacted]
sec-fetch-site: [Redacted]
sec-fetch-mode: [Redacted]
sec-fetch-dest: [Redacted]
2024-02-11 13:18:45.276 +04:00 [INF] Sending file. Request path: '/swagger-ui.css'. Physical path: 'N/A'
2024-02-11 13:18:45.276 +04:00 [INF] Response:
StatusCode: 200
Content-Type: text/css
Date: Sun, 11 Feb 2024 09:18:44 GMT
Server: Kestrel
Accept-Ranges: bytes
ETag: [Redacted]
Last-Modified: Sat, 16 Oct 2021 12:54:30 GMT
Content-Length: 143632
2024-02-11 13:18:45.276 +04:00 [INF] HTTP GET /swagger/swagger-ui.css responded 200 in 26.6268 ms
2024-02-11 13:18:45.277 +04:00 [INF] Request finished HTTP/2 GET https://localhost:7130/swagger/swagger-ui.css - - - 200 143632 text/css 27.9540ms
2024-02-11 13:18:45.282 +04:00 [INF] Request starting HTTP/2 GET https://localhost:7130/_vs/browserLink - -
2024-02-11 13:18:45.284 +04:00 [INF] Sending file. Request path: '/swagger-ui-standalone-preset.js'. Physical path: 'N/A'
2024-02-11 13:18:45.285 +04:00 [INF] Response:
StatusCode: 200
Content-Type: application/javascript
Date: Sun, 11 Feb 2024 09:18:44 GMT
Server: Kestrel
Accept-Ranges: bytes
ETag: [Redacted]
Last-Modified: Sat, 16 Oct 2021 12:54:30 GMT
Content-Length: 337162
2024-02-11 13:18:45.285 +04:00 [INF] HTTP GET /swagger/swagger-ui-standalone-preset.js responded 200 in 35.3234 ms
2024-02-11 13:18:45.285 +04:00 [INF] Request finished HTTP/2 GET https://localhost:7130/swagger/swagger-ui-standalone-preset.js - - - 200 337162 application/javascript 35.8110ms
2024-02-11 13:18:45.302 +04:00 [INF] Sending file. Request path: '/swagger-ui-bundle.js'. Physical path: 'N/A'
2024-02-11 13:18:45.302 +04:00 [INF] Response:
StatusCode: 200
Content-Type: application/javascript
Date: Sun, 11 Feb 2024 09:18:44 GMT
Server: Kestrel
Accept-Ranges: bytes
ETag: [Redacted]
Last-Modified: Sat, 16 Oct 2021 12:54:30 GMT
Content-Length: 1092889
2024-02-11 13:18:45.302 +04:00 [INF] HTTP GET /swagger/swagger-ui-bundle.js responded 200 in 52.8248 ms
2024-02-11 13:18:45.302 +04:00 [INF] Request finished HTTP/2 GET https://localhost:7130/swagger/swagger-ui-bundle.js - - - 200 1092889 application/javascript 53.6381ms
2024-02-11 13:18:45.374 +04:00 [INF] Request finished HTTP/2 GET https://localhost:7130/_vs/browserLink - - - 200 - text/javascript;+charset=UTF-8 91.9832ms
2024-02-11 13:18:45.562 +04:00 [INF] Request starting HTTP/2 GET https://localhost:7130/swagger/v1/swagger.json - -
2024-02-11 13:18:45.562 +04:00 [INF] Request:
Protocol: HTTP/2
Method: GET
Scheme: https
PathBase: 
Path: /swagger/v1/swagger.json
Accept: application/json,*/*
Host: localhost:7130
User-Agent: Mozilla/5.0 (Windows NT 10.0; Win64; x64) AppleWebKit/537.36 (KHTML, like Gecko) Chrome/121.0.0.0 Safari/537.36
:method: [Redacted]
Accept-Encoding: gzip, deflate, br
Accept-Language: ru-RU,ru;q=0.9,en-US;q=0.8,en;q=0.7
Referer: [Redacted]
sec-ch-ua: [Redacted]
sec-ch-ua-mobile: [Redacted]
sec-ch-ua-platform: [Redacted]
sec-fetch-site: [Redacted]
sec-fetch-mode: [Redacted]
sec-fetch-dest: [Redacted]
2024-02-11 13:18:45.602 +04:00 [INF] Request starting HTTP/2 GET https://localhost:7130/swagger/favicon-32x32.png - -
2024-02-11 13:18:45.602 +04:00 [INF] Request:
Protocol: HTTP/2
Method: GET
Scheme: https
PathBase: 
Path: /swagger/favicon-32x32.png
Accept: image/avif,image/webp,image/apng,image/svg+xml,image/*,*/*;q=0.8
Host: localhost:7130
User-Agent: Mozilla/5.0 (Windows NT 10.0; Win64; x64) AppleWebKit/537.36 (KHTML, like Gecko) Chrome/121.0.0.0 Safari/537.36
:method: [Redacted]
Accept-Encoding: gzip, deflate, br
Accept-Language: ru-RU,ru;q=0.9,en-US;q=0.8,en;q=0.7
Referer: [Redacted]
sec-ch-ua: [Redacted]
sec-ch-ua-mobile: [Redacted]
sec-ch-ua-platform: [Redacted]
sec-fetch-site: [Redacted]
sec-fetch-mode: [Redacted]
sec-fetch-dest: [Redacted]
2024-02-11 13:18:45.603 +04:00 [INF] Sending file. Request path: '/favicon-32x32.png'. Physical path: 'N/A'
2024-02-11 13:18:45.603 +04:00 [INF] Response:
StatusCode: 200
Content-Type: image/png
Date: Sun, 11 Feb 2024 09:18:45 GMT
Server: Kestrel
Accept-Ranges: bytes
ETag: [Redacted]
Last-Modified: Sat, 16 Oct 2021 12:54:30 GMT
Content-Length: 628
2024-02-11 13:18:45.603 +04:00 [INF] HTTP GET /swagger/favicon-32x32.png responded 200 in 1.0271 ms
2024-02-11 13:18:45.604 +04:00 [INF] Request finished HTTP/2 GET https://localhost:7130/swagger/favicon-32x32.png - - - 200 628 image/png 1.7029ms
2024-02-11 13:18:45.779 +04:00 [INF] Response:
StatusCode: 200
Content-Type: application/json;charset=utf-8
Date: Sun, 11 Feb 2024 09:18:45 GMT
Server: Kestrel
2024-02-11 13:18:45.779 +04:00 [INF] HTTP GET /swagger/v1/swagger.json responded 200 in 217.0275 ms
2024-02-11 13:18:45.779 +04:00 [INF] Request finished HTTP/2 GET https://localhost:7130/swagger/v1/swagger.json - - - 200 - application/json;charset=utf-8 217.5026ms
2024-02-11 13:19:16.468 +04:00 [INF] Request starting HTTP/2 GET https://localhost:7130/auth/profile - -
2024-02-11 13:19:16.468 +04:00 [INF] Request:
Protocol: HTTP/2
Method: GET
Scheme: https
PathBase: 
Path: /auth/profile
Accept: text/plain
Host: localhost:7130
User-Agent: Mozilla/5.0 (Windows NT 10.0; Win64; x64) AppleWebKit/537.36 (KHTML, like Gecko) Chrome/121.0.0.0 Safari/537.36
:method: [Redacted]
Accept-Encoding: gzip, deflate, br
Accept-Language: ru-RU,ru;q=0.9,en-US;q=0.8,en;q=0.7
Authorization: [Redacted]
Referer: [Redacted]
sec-ch-ua: [Redacted]
sec-ch-ua-mobile: [Redacted]
sec-ch-ua-platform: [Redacted]
sec-fetch-site: [Redacted]
sec-fetch-mode: [Redacted]
sec-fetch-dest: [Redacted]
2024-02-11 13:19:16.509 +04:00 [INF] Authorization failed. These requirements were not met:
DenyAnonymousAuthorizationRequirement: Requires an authenticated user.
2024-02-11 13:19:16.512 +04:00 [INF] AuthenticationScheme: Bearer was challenged.
2024-02-11 13:19:16.512 +04:00 [INF] Response:
StatusCode: 401
WWW-Authenticate: [Redacted]
2024-02-11 13:19:16.512 +04:00 [INF] HTTP GET /auth/profile responded 401 in 43.6521 ms
2024-02-11 13:19:16.512 +04:00 [INF] Request finished HTTP/2 GET https://localhost:7130/auth/profile - - - 401 - application/json;+charset=utf-8 44.3664ms
2024-02-11 13:19:36.524 +04:00 [INF] Request starting HTTP/2 GET https://localhost:7130/auth/profile - -
2024-02-11 13:19:36.694 +04:00 [INF] Request:
Protocol: HTTP/2
Method: GET
Scheme: https
PathBase: 
Path: /auth/profile
Accept: text/plain
Host: localhost:7130
User-Agent: Mozilla/5.0 (Windows NT 10.0; Win64; x64) AppleWebKit/537.36 (KHTML, like Gecko) Chrome/121.0.0.0 Safari/537.36
:method: [Redacted]
Accept-Encoding: gzip, deflate, br
Accept-Language: ru-RU,ru;q=0.9,en-US;q=0.8,en;q=0.7
Authorization: [Redacted]
Referer: [Redacted]
sec-ch-ua: [Redacted]
sec-ch-ua-mobile: [Redacted]
sec-ch-ua-platform: [Redacted]
sec-fetch-site: [Redacted]
sec-fetch-mode: [Redacted]
sec-fetch-dest: [Redacted]
2024-02-11 13:19:36.699 +04:00 [INF] Executing endpoint 'CrocusoftReport.Controllers.AuthController.Profile (CrocusoftReport)'
2024-02-11 13:19:36.902 +04:00 [INF] Route matched with {action = "Profile", controller = "Auth"}. Executing controller action with signature System.Threading.Tasks.Task`1[CrocusoftReport.Identity.ViewModels.UserInfoDto] Profile() on controller CrocusoftReport.Controllers.AuthController (CrocusoftReport).
2024-02-11 13:19:36.916 +04:00 [INF] Entity Framework Core 6.0.10 initialized 'CrocusoftReportDbContext' using provider 'Microsoft.EntityFrameworkCore.SqlServer:6.0.9' with options: MigrationsAssembly=CrocusoftReport.Infrastructure.Migrations 
2024-02-11 13:19:37.259 +04:00 [INF] Executed DbCommand (258ms) [Parameters=[@__userId_0='?' (DbType = Int32)], CommandType='"Text"', CommandTimeout='30']
SELECT TOP(2) [u].[id], [u].[email], [u].[first_name], [u].[is_active], [u].[IsChanged], [u].[IsDeleted], [u].[last_name], [u].[otp], [u].[otp-expiration], [u].[password_hash], [u].[refresh_token], [u].[role_id], [u].[team_id], [r].[id], [r].[description], [r].[is_deleted], [r].[name]
FROM [users] AS [u]
INNER JOIN [roles] AS [r] ON [u].[role_id] = [r].[id]
WHERE ([u].[IsDeleted] = CAST(0 AS bit)) AND ([u].[id] = @__userId_0)
2024-02-11 13:19:37.281 +04:00 [INF] Executing ObjectResult, writing value of type 'CrocusoftReport.Identity.ViewModels.UserInfoDto'.
2024-02-11 13:19:37.370 +04:00 [INF] Executed action CrocusoftReport.Controllers.AuthController.Profile (CrocusoftReport) in 464.065ms
2024-02-11 13:19:37.370 +04:00 [INF] Executed endpoint 'CrocusoftReport.Controllers.AuthController.Profile (CrocusoftReport)'
2024-02-11 13:19:37.372 +04:00 [INF] Response:
StatusCode: 200
Content-Type: application/json; charset=utf-8
Date: Sun, 11 Feb 2024 09:19:36 GMT
Server: Kestrel
Content-Length: 111
2024-02-11 13:19:37.372 +04:00 [INF] HTTP GET /auth/profile responded 200 in 677.6939 ms
2024-02-11 13:19:37.374 +04:00 [INF] Request finished HTTP/2 GET https://localhost:7130/auth/profile - - - 200 111 application/json;+charset=utf-8 850.4620ms
2024-02-11 13:20:42.331 +04:00 [WRN] 'AddEntityFramework*' was called on the service provider, but 'UseInternalServiceProvider' wasn't called in the DbContext options configuration. Consider removing the 'AddEntityFramework*' call, as in most cases it's not needed and may cause conflicts with other products and services registered in the same service provider.
2024-02-11 13:20:42.386 +04:00 [INF] Migrating database associated with context CrocusoftReportDbContext
2024-02-11 13:20:42.920 +04:00 [WRN] Entity 'AppUser' has a global query filter defined and is the required end of a relationship with the entity 'ProjectUser'. This may lead to unexpected results when the required entity is filtered out. Either configure the navigation as optional, or define matching query filters for both entities in the navigation. See https://go.microsoft.com/fwlink/?linkid=2131316 for more information.
2024-02-11 13:20:42.921 +04:00 [WRN] Entity 'AppUser' has a global query filter defined and is the required end of a relationship with the entity 'Report'. This may lead to unexpected results when the required entity is filtered out. Either configure the navigation as optional, or define matching query filters for both entities in the navigation. See https://go.microsoft.com/fwlink/?linkid=2131316 for more information.
2024-02-11 13:20:43.114 +04:00 [INF] Entity Framework Core 6.0.10 initialized 'CrocusoftReportDbContext' using provider 'Microsoft.EntityFrameworkCore.SqlServer:6.0.9' with options: MigrationsAssembly=CrocusoftReport.Infrastructure.Migrations 
2024-02-11 13:20:44.903 +04:00 [INF] Executed DbCommand (254ms) [Parameters=[], CommandType='"Text"', CommandTimeout='30']
SELECT 1
2024-02-11 13:20:45.173 +04:00 [INF] Executed DbCommand (250ms) [Parameters=[], CommandType='"Text"', CommandTimeout='30']
SELECT OBJECT_ID(N'[__EFMigrationsHistory]');
2024-02-11 13:20:45.418 +04:00 [INF] Executed DbCommand (229ms) [Parameters=[], CommandType='"Text"', CommandTimeout='30']
SELECT [MigrationId], [ProductVersion]
FROM [__EFMigrationsHistory]
ORDER BY [MigrationId];
2024-02-11 13:20:45.956 +04:00 [INF] Executed DbCommand (231ms) [Parameters=[], CommandType='"Text"', CommandTimeout='30']
SELECT TOP(1) [u].[id], [u].[email], [u].[first_name], [u].[is_active], [u].[IsChanged], [u].[IsDeleted], [u].[last_name], [u].[otp], [u].[otp-expiration], [u].[password_hash], [u].[refresh_token], [u].[role_id], [u].[team_id]
FROM [users] AS [u]
WHERE [u].[IsDeleted] = CAST(0 AS bit)
2024-02-11 13:20:46.023 +04:00 [INF] Migrated database associated with context CrocusoftReportDbContext
2024-02-11 13:20:46.135 +04:00 [INF] User profile is available. Using 'C:\Users\user\AppData\Local\ASP.NET\DataProtection-Keys' as key repository and Windows DPAPI to encrypt keys at rest.
2024-02-11 13:20:46.680 +04:00 [INF] Request starting HTTP/2 GET https://localhost:7130/swagger/index.html - -
2024-02-11 13:20:46.830 +04:00 [INF] Request:
Protocol: HTTP/2
Method: GET
Scheme: https
PathBase: 
Path: /swagger/index.html
Accept: text/html,application/xhtml+xml,application/xml;q=0.9,image/avif,image/webp,image/apng,*/*;q=0.8,application/signed-exchange;v=b3;q=0.7
Host: localhost:7130
User-Agent: Mozilla/5.0 (Windows NT 10.0; Win64; x64) AppleWebKit/537.36 (KHTML, like Gecko) Chrome/121.0.0.0 Safari/537.36
:method: [Redacted]
Accept-Encoding: gzip, deflate, br
Accept-Language: ru-RU,ru;q=0.9,en-US;q=0.8,en;q=0.7
Upgrade-Insecure-Requests: [Redacted]
sec-fetch-site: [Redacted]
sec-fetch-mode: [Redacted]
sec-fetch-user: [Redacted]
sec-fetch-dest: [Redacted]
sec-ch-ua: [Redacted]
sec-ch-ua-mobile: [Redacted]
sec-ch-ua-platform: [Redacted]
2024-02-11 13:20:47.024 +04:00 [INF] Response:
StatusCode: 200
Content-Type: text/html;charset=utf-8
Date: Sun, 11 Feb 2024 09:20:46 GMT
Server: Kestrel
2024-02-11 13:20:47.026 +04:00 [INF] HTTP GET /swagger/index.html responded 200 in 199.5104 ms
2024-02-11 13:20:47.031 +04:00 [WRN] Unable to configure browser refresh script injection on the response. Consider manually adding '<script src="/_framework/aspnetcore-browser-refresh.js"></script>' to the body of the page.
2024-02-11 13:20:47.042 +04:00 [INF] Request finished HTTP/2 GET https://localhost:7130/swagger/index.html - - - 200 - text/html;charset=utf-8 365.8456ms
2024-02-11 13:20:47.045 +04:00 [INF] Request starting HTTP/2 GET https://localhost:7130/_vs/browserLink - -
2024-02-11 13:20:47.085 +04:00 [INF] Request finished HTTP/2 GET https://localhost:7130/_vs/browserLink - - - 200 - text/javascript;+charset=UTF-8 40.2840ms
2024-02-11 13:20:47.302 +04:00 [INF] Request starting HTTP/2 GET https://localhost:7130/swagger/v1/swagger.json - -
2024-02-11 13:20:47.304 +04:00 [INF] Request:
Protocol: HTTP/2
Method: GET
Scheme: https
PathBase: 
Path: /swagger/v1/swagger.json
Accept: application/json,*/*
Host: localhost:7130
User-Agent: Mozilla/5.0 (Windows NT 10.0; Win64; x64) AppleWebKit/537.36 (KHTML, like Gecko) Chrome/121.0.0.0 Safari/537.36
:method: [Redacted]
Accept-Encoding: gzip, deflate, br
Accept-Language: ru-RU,ru;q=0.9,en-US;q=0.8,en;q=0.7
Referer: [Redacted]
sec-ch-ua: [Redacted]
sec-ch-ua-mobile: [Redacted]
sec-ch-ua-platform: [Redacted]
sec-fetch-site: [Redacted]
sec-fetch-mode: [Redacted]
sec-fetch-dest: [Redacted]
2024-02-11 13:20:47.588 +04:00 [INF] Response:
StatusCode: 200
Content-Type: application/json;charset=utf-8
Date: Sun, 11 Feb 2024 09:20:47 GMT
Server: Kestrel
2024-02-11 13:20:47.588 +04:00 [INF] HTTP GET /swagger/v1/swagger.json responded 200 in 284.4895 ms
2024-02-11 13:20:47.588 +04:00 [INF] Request finished HTTP/2 GET https://localhost:7130/swagger/v1/swagger.json - - - 200 - application/json;charset=utf-8 286.2597ms
2024-02-11 13:21:09.856 +04:00 [INF] Request starting HTTP/2 GET https://localhost:7130/auth/profile - -
2024-02-11 13:21:10.078 +04:00 [INF] Request:
Protocol: HTTP/2
Method: GET
Scheme: https
PathBase: 
Path: /auth/profile
Accept: text/plain
Host: localhost:7130
User-Agent: Mozilla/5.0 (Windows NT 10.0; Win64; x64) AppleWebKit/537.36 (KHTML, like Gecko) Chrome/121.0.0.0 Safari/537.36
:method: [Redacted]
Accept-Encoding: gzip, deflate, br
Accept-Language: ru-RU,ru;q=0.9,en-US;q=0.8,en;q=0.7
Authorization: [Redacted]
Referer: [Redacted]
sec-ch-ua: [Redacted]
sec-ch-ua-mobile: [Redacted]
sec-ch-ua-platform: [Redacted]
sec-fetch-site: [Redacted]
sec-fetch-mode: [Redacted]
sec-fetch-dest: [Redacted]
2024-02-11 13:21:10.146 +04:00 [INF] Executing endpoint 'CrocusoftReport.Controllers.AuthController.Profile (CrocusoftReport)'
2024-02-11 13:21:10.419 +04:00 [INF] Route matched with {action = "Profile", controller = "Auth"}. Executing controller action with signature System.Threading.Tasks.Task`1[CrocusoftReport.Identity.ViewModels.UserInfoDto] Profile() on controller CrocusoftReport.Controllers.AuthController (CrocusoftReport).
2024-02-11 13:21:10.434 +04:00 [INF] Entity Framework Core 6.0.10 initialized 'CrocusoftReportDbContext' using provider 'Microsoft.EntityFrameworkCore.SqlServer:6.0.9' with options: MigrationsAssembly=CrocusoftReport.Infrastructure.Migrations 
2024-02-11 13:21:10.801 +04:00 [INF] Executed DbCommand (264ms) [Parameters=[@__userId_0='?' (DbType = Int32)], CommandType='"Text"', CommandTimeout='30']
SELECT TOP(2) [u].[id], [u].[email], [u].[first_name], [u].[is_active], [u].[IsChanged], [u].[IsDeleted], [u].[last_name], [u].[otp], [u].[otp-expiration], [u].[password_hash], [u].[refresh_token], [u].[role_id], [u].[team_id], [r].[id], [r].[description], [r].[is_deleted], [r].[name], [t].[Id], [t].[TeamName]
FROM [users] AS [u]
INNER JOIN [roles] AS [r] ON [u].[role_id] = [r].[id]
LEFT JOIN [teams] AS [t] ON [u].[team_id] = [t].[Id]
WHERE ([u].[IsDeleted] = CAST(0 AS bit)) AND ([u].[id] = @__userId_0)
2024-02-11 13:21:10.835 +04:00 [INF] Executing ObjectResult, writing value of type 'CrocusoftReport.Identity.ViewModels.UserInfoDto'.
2024-02-11 13:21:11.004 +04:00 [INF] Executed action CrocusoftReport.Controllers.AuthController.Profile (CrocusoftReport) in 574.3317ms
2024-02-11 13:21:11.005 +04:00 [INF] Executed endpoint 'CrocusoftReport.Controllers.AuthController.Profile (CrocusoftReport)'
2024-02-11 13:21:11.007 +04:00 [INF] Response:
StatusCode: 200
Content-Type: application/json; charset=utf-8
Date: Sun, 11 Feb 2024 09:21:10 GMT
Server: Kestrel
Content-Length: 111
2024-02-11 13:21:11.007 +04:00 [INF] HTTP GET /auth/profile responded 200 in 929.4973 ms
2024-02-11 13:21:11.011 +04:00 [INF] Request finished HTTP/2 GET https://localhost:7130/auth/profile - - - 200 111 application/json;+charset=utf-8 1154.5360ms
2024-02-11 13:23:03.437 +04:00 [WRN] 'AddEntityFramework*' was called on the service provider, but 'UseInternalServiceProvider' wasn't called in the DbContext options configuration. Consider removing the 'AddEntityFramework*' call, as in most cases it's not needed and may cause conflicts with other products and services registered in the same service provider.
2024-02-11 13:23:03.499 +04:00 [INF] Migrating database associated with context CrocusoftReportDbContext
2024-02-11 13:23:04.226 +04:00 [WRN] Entity 'AppUser' has a global query filter defined and is the required end of a relationship with the entity 'ProjectUser'. This may lead to unexpected results when the required entity is filtered out. Either configure the navigation as optional, or define matching query filters for both entities in the navigation. See https://go.microsoft.com/fwlink/?linkid=2131316 for more information.
2024-02-11 13:23:04.227 +04:00 [WRN] Entity 'AppUser' has a global query filter defined and is the required end of a relationship with the entity 'Report'. This may lead to unexpected results when the required entity is filtered out. Either configure the navigation as optional, or define matching query filters for both entities in the navigation. See https://go.microsoft.com/fwlink/?linkid=2131316 for more information.
2024-02-11 13:23:04.584 +04:00 [INF] Entity Framework Core 6.0.10 initialized 'CrocusoftReportDbContext' using provider 'Microsoft.EntityFrameworkCore.SqlServer:6.0.9' with options: MigrationsAssembly=CrocusoftReport.Infrastructure.Migrations 
2024-02-11 13:23:06.425 +04:00 [INF] Executed DbCommand (263ms) [Parameters=[], CommandType='"Text"', CommandTimeout='30']
SELECT 1
2024-02-11 13:23:06.707 +04:00 [INF] Executed DbCommand (261ms) [Parameters=[], CommandType='"Text"', CommandTimeout='30']
SELECT OBJECT_ID(N'[__EFMigrationsHistory]');
2024-02-11 13:23:06.965 +04:00 [INF] Executed DbCommand (242ms) [Parameters=[], CommandType='"Text"', CommandTimeout='30']
SELECT [MigrationId], [ProductVersion]
FROM [__EFMigrationsHistory]
ORDER BY [MigrationId];
2024-02-11 13:23:07.500 +04:00 [INF] Executed DbCommand (231ms) [Parameters=[], CommandType='"Text"', CommandTimeout='30']
SELECT TOP(1) [u].[id], [u].[email], [u].[first_name], [u].[is_active], [u].[IsChanged], [u].[IsDeleted], [u].[last_name], [u].[otp], [u].[otp-expiration], [u].[password_hash], [u].[refresh_token], [u].[role_id], [u].[team_id]
FROM [users] AS [u]
WHERE [u].[IsDeleted] = CAST(0 AS bit)
2024-02-11 13:23:07.572 +04:00 [INF] Migrated database associated with context CrocusoftReportDbContext
2024-02-11 13:23:07.704 +04:00 [INF] User profile is available. Using 'C:\Users\user\AppData\Local\ASP.NET\DataProtection-Keys' as key repository and Windows DPAPI to encrypt keys at rest.
2024-02-11 13:23:08.182 +04:00 [INF] Request starting HTTP/2 GET https://localhost:7130/swagger/index.html - -
2024-02-11 13:23:08.304 +04:00 [INF] Request:
Protocol: HTTP/2
Method: GET
Scheme: https
PathBase: 
Path: /swagger/index.html
Accept: text/html,application/xhtml+xml,application/xml;q=0.9,image/avif,image/webp,image/apng,*/*;q=0.8,application/signed-exchange;v=b3;q=0.7
Host: localhost:7130
User-Agent: Mozilla/5.0 (Windows NT 10.0; Win64; x64) AppleWebKit/537.36 (KHTML, like Gecko) Chrome/121.0.0.0 Safari/537.36
:method: [Redacted]
Accept-Encoding: gzip, deflate, br
Accept-Language: ru-RU,ru;q=0.9,en-US;q=0.8,en;q=0.7
Upgrade-Insecure-Requests: [Redacted]
sec-fetch-site: [Redacted]
sec-fetch-mode: [Redacted]
sec-fetch-user: [Redacted]
sec-fetch-dest: [Redacted]
sec-ch-ua: [Redacted]
sec-ch-ua-mobile: [Redacted]
sec-ch-ua-platform: [Redacted]
2024-02-11 13:23:08.502 +04:00 [INF] Response:
StatusCode: 200
Content-Type: text/html;charset=utf-8
Date: Sun, 11 Feb 2024 09:23:07 GMT
Server: Kestrel
2024-02-11 13:23:08.504 +04:00 [INF] HTTP GET /swagger/index.html responded 200 in 205.2124 ms
2024-02-11 13:23:08.512 +04:00 [WRN] Unable to configure browser refresh script injection on the response. Consider manually adding '<script src="/_framework/aspnetcore-browser-refresh.js"></script>' to the body of the page.
2024-02-11 13:23:08.517 +04:00 [INF] Request starting HTTP/2 GET https://localhost:7130/_vs/browserLink - -
2024-02-11 13:23:08.521 +04:00 [INF] Request finished HTTP/2 GET https://localhost:7130/swagger/index.html - - - 200 - text/html;charset=utf-8 344.2440ms
2024-02-11 13:23:08.539 +04:00 [INF] Request finished HTTP/2 GET https://localhost:7130/_vs/browserLink - - - 200 - text/javascript;+charset=UTF-8 21.4096ms
2024-02-11 13:23:08.669 +04:00 [INF] Request starting HTTP/2 GET https://localhost:7130/swagger/v1/swagger.json - -
2024-02-11 13:23:08.670 +04:00 [INF] Request:
Protocol: HTTP/2
Method: GET
Scheme: https
PathBase: 
Path: /swagger/v1/swagger.json
Accept: application/json,*/*
Host: localhost:7130
User-Agent: Mozilla/5.0 (Windows NT 10.0; Win64; x64) AppleWebKit/537.36 (KHTML, like Gecko) Chrome/121.0.0.0 Safari/537.36
:method: [Redacted]
Accept-Encoding: gzip, deflate, br
Accept-Language: ru-RU,ru;q=0.9,en-US;q=0.8,en;q=0.7
Referer: [Redacted]
sec-ch-ua: [Redacted]
sec-ch-ua-mobile: [Redacted]
sec-ch-ua-platform: [Redacted]
sec-fetch-site: [Redacted]
sec-fetch-mode: [Redacted]
sec-fetch-dest: [Redacted]
2024-02-11 13:23:08.910 +04:00 [INF] Response:
StatusCode: 200
Content-Type: application/json;charset=utf-8
Date: Sun, 11 Feb 2024 09:23:08 GMT
Server: Kestrel
2024-02-11 13:23:08.910 +04:00 [INF] HTTP GET /swagger/v1/swagger.json responded 200 in 240.5378 ms
2024-02-11 13:23:08.911 +04:00 [INF] Request finished HTTP/2 GET https://localhost:7130/swagger/v1/swagger.json - - - 200 - application/json;charset=utf-8 242.0316ms
2024-02-11 13:23:31.214 +04:00 [INF] Request starting HTTP/2 GET https://localhost:7130/auth/profile - -
2024-02-11 13:23:31.411 +04:00 [INF] Request:
Protocol: HTTP/2
Method: GET
Scheme: https
PathBase: 
Path: /auth/profile
Accept: text/plain
Host: localhost:7130
User-Agent: Mozilla/5.0 (Windows NT 10.0; Win64; x64) AppleWebKit/537.36 (KHTML, like Gecko) Chrome/121.0.0.0 Safari/537.36
:method: [Redacted]
Accept-Encoding: gzip, deflate, br
Accept-Language: ru-RU,ru;q=0.9,en-US;q=0.8,en;q=0.7
Authorization: [Redacted]
Referer: [Redacted]
sec-ch-ua: [Redacted]
sec-ch-ua-mobile: [Redacted]
sec-ch-ua-platform: [Redacted]
sec-fetch-site: [Redacted]
sec-fetch-mode: [Redacted]
sec-fetch-dest: [Redacted]
2024-02-11 13:23:31.447 +04:00 [INF] Executing endpoint 'CrocusoftReport.Controllers.AuthController.Profile (CrocusoftReport)'
2024-02-11 13:23:31.673 +04:00 [INF] Route matched with {action = "Profile", controller = "Auth"}. Executing controller action with signature System.Threading.Tasks.Task`1[CrocusoftReport.Identity.ViewModels.UserInfoDto] Profile() on controller CrocusoftReport.Controllers.AuthController (CrocusoftReport).
2024-02-11 13:23:31.687 +04:00 [INF] Entity Framework Core 6.0.10 initialized 'CrocusoftReportDbContext' using provider 'Microsoft.EntityFrameworkCore.SqlServer:6.0.9' with options: MigrationsAssembly=CrocusoftReport.Infrastructure.Migrations 
2024-02-11 13:23:32.110 +04:00 [INF] Executed DbCommand (264ms) [Parameters=[@__userId_0='?' (DbType = Int32)], CommandType='"Text"', CommandTimeout='30']
SELECT TOP(2) [u].[id], [u].[email], [u].[first_name], [u].[is_active], [u].[IsChanged], [u].[IsDeleted], [u].[last_name], [u].[otp], [u].[otp-expiration], [u].[password_hash], [u].[refresh_token], [u].[role_id], [u].[team_id], [r].[id], [r].[description], [r].[is_deleted], [r].[name], [t].[Id], [t].[TeamName]
FROM [users] AS [u]
INNER JOIN [roles] AS [r] ON [u].[role_id] = [r].[id]
LEFT JOIN [teams] AS [t] ON [u].[team_id] = [t].[Id]
WHERE ([u].[IsDeleted] = CAST(0 AS bit)) AND ([u].[id] = @__userId_0)
2024-02-11 13:23:32.149 +04:00 [INF] Executing ObjectResult, writing value of type 'CrocusoftReport.Identity.ViewModels.UserInfoDto'.
2024-02-11 13:23:32.263 +04:00 [INF] Executed action CrocusoftReport.Controllers.AuthController.Profile (CrocusoftReport) in 585.7592ms
2024-02-11 13:23:32.263 +04:00 [INF] Executed endpoint 'CrocusoftReport.Controllers.AuthController.Profile (CrocusoftReport)'
2024-02-11 13:23:32.265 +04:00 [INF] Response:
StatusCode: 200
Content-Type: application/json; charset=utf-8
Date: Sun, 11 Feb 2024 09:23:32 GMT
Server: Kestrel
Content-Length: 111
2024-02-11 13:23:32.265 +04:00 [INF] HTTP GET /auth/profile responded 200 in 854.1420 ms
2024-02-11 13:23:32.268 +04:00 [INF] Request finished HTTP/2 GET https://localhost:7130/auth/profile - - - 200 111 application/json;+charset=utf-8 1053.9210ms
2024-02-11 13:24:06.049 +04:00 [INF] Request starting HTTP/2 GET https://localhost:7130/team - -
2024-02-11 13:24:06.049 +04:00 [INF] Request:
Protocol: HTTP/2
Method: GET
Scheme: https
PathBase: 
Path: /team
Accept: text/plain
Host: localhost:7130
User-Agent: Mozilla/5.0 (Windows NT 10.0; Win64; x64) AppleWebKit/537.36 (KHTML, like Gecko) Chrome/121.0.0.0 Safari/537.36
:method: [Redacted]
Accept-Encoding: gzip, deflate, br
Accept-Language: ru-RU,ru;q=0.9,en-US;q=0.8,en;q=0.7
Referer: [Redacted]
sec-ch-ua: [Redacted]
sec-ch-ua-mobile: [Redacted]
sec-ch-ua-platform: [Redacted]
sec-fetch-site: [Redacted]
sec-fetch-mode: [Redacted]
sec-fetch-dest: [Redacted]
2024-02-11 13:24:06.052 +04:00 [INF] Executing endpoint 'CrocusoftReport.Controllers.TeamController.GetAllAsync (CrocusoftReport)'
2024-02-11 13:24:06.077 +04:00 [INF] Route matched with {action = "GetAll", controller = "Team"}. Executing controller action with signature System.Threading.Tasks.Task`1[CrocusoftReport.TeamDetails.ViewModels.AllTeamDto] GetAllAsync(CrocusoftReport.Infrastructure.Constants.LoadMoreDto) on controller CrocusoftReport.Controllers.TeamController (CrocusoftReport).
2024-02-11 13:24:06.175 +04:00 [INF] Entity Framework Core 6.0.10 initialized 'CrocusoftReportDbContext' using provider 'Microsoft.EntityFrameworkCore.SqlServer:6.0.9' with options: MigrationsAssembly=CrocusoftReport.Infrastructure.Migrations 
2024-02-11 13:24:06.520 +04:00 [INF] Executed DbCommand (244ms) [Parameters=[], CommandType='"Text"', CommandTimeout='30']
SELECT [t].[Id], [t].[TeamName], [t0].[id], [t0].[email], [t0].[first_name], [t0].[is_active], [t0].[IsChanged], [t0].[IsDeleted], [t0].[last_name], [t0].[otp], [t0].[otp-expiration], [t0].[password_hash], [t0].[refresh_token], [t0].[role_id], [t0].[team_id]
FROM [teams] AS [t]
LEFT JOIN (
    SELECT [u].[id], [u].[email], [u].[first_name], [u].[is_active], [u].[IsChanged], [u].[IsDeleted], [u].[last_name], [u].[otp], [u].[otp-expiration], [u].[password_hash], [u].[refresh_token], [u].[role_id], [u].[team_id]
    FROM [users] AS [u]
    WHERE [u].[IsDeleted] = CAST(0 AS bit)
) AS [t0] ON [t].[Id] = [t0].[team_id]
ORDER BY [t].[Id]
2024-02-11 13:24:06.817 +04:00 [INF] Executed DbCommand (230ms) [Parameters=[], CommandType='"Text"', CommandTimeout='30']
SELECT [t].[Id], [t].[TeamName], [t0].[id], [t0].[email], [t0].[first_name], [t0].[is_active], [t0].[IsChanged], [t0].[IsDeleted], [t0].[last_name], [t0].[otp], [t0].[otp-expiration], [t0].[password_hash], [t0].[refresh_token], [t0].[role_id], [t0].[team_id]
FROM [teams] AS [t]
LEFT JOIN (
    SELECT [u].[id], [u].[email], [u].[first_name], [u].[is_active], [u].[IsChanged], [u].[IsDeleted], [u].[last_name], [u].[otp], [u].[otp-expiration], [u].[password_hash], [u].[refresh_token], [u].[role_id], [u].[team_id]
    FROM [users] AS [u]
    WHERE [u].[IsDeleted] = CAST(0 AS bit)
) AS [t0] ON [t].[Id] = [t0].[team_id]
ORDER BY [t].[Id]
2024-02-11 13:24:06.819 +04:00 [INF] Executing ObjectResult, writing value of type 'CrocusoftReport.TeamDetails.ViewModels.AllTeamDto'.
2024-02-11 13:24:06.837 +04:00 [INF] Executed action CrocusoftReport.Controllers.TeamController.GetAllAsync (CrocusoftReport) in 760.7468ms
2024-02-11 13:24:06.838 +04:00 [INF] Executed endpoint 'CrocusoftReport.Controllers.TeamController.GetAllAsync (CrocusoftReport)'
2024-02-11 13:24:06.838 +04:00 [INF] Response:
StatusCode: 200
Content-Type: application/json; charset=utf-8
Date: Sun, 11 Feb 2024 09:24:06 GMT
Server: Kestrel
Content-Length: 27
2024-02-11 13:24:06.838 +04:00 [INF] HTTP GET /team responded 200 in 788.2924 ms
2024-02-11 13:24:06.838 +04:00 [INF] Request finished HTTP/2 GET https://localhost:7130/team - - - 200 27 application/json;+charset=utf-8 789.0214ms
2024-02-11 13:24:42.142 +04:00 [INF] Request starting HTTP/2 POST https://localhost:7130/team application/json-patch+json 27
2024-02-11 13:24:42.143 +04:00 [INF] Request:
Protocol: HTTP/2
Method: POST
Scheme: https
PathBase: 
Path: /team
Accept: */*
Host: localhost:7130
User-Agent: Mozilla/5.0 (Windows NT 10.0; Win64; x64) AppleWebKit/537.36 (KHTML, like Gecko) Chrome/121.0.0.0 Safari/537.36
:method: [Redacted]
Accept-Encoding: gzip, deflate, br
Accept-Language: ru-RU,ru;q=0.9,en-US;q=0.8,en;q=0.7
Content-Type: application/json-patch+json
Origin: [Redacted]
Referer: [Redacted]
Content-Length: 27
sec-ch-ua: [Redacted]
x-requestid: [Redacted]
sec-ch-ua-mobile: [Redacted]
sec-ch-ua-platform: [Redacted]
sec-fetch-site: [Redacted]
sec-fetch-mode: [Redacted]
sec-fetch-dest: [Redacted]
2024-02-11 13:24:42.144 +04:00 [INF] CORS policy execution successful.
2024-02-11 13:24:42.146 +04:00 [INF] Executing endpoint 'CrocusoftReport.Controllers.TeamController.Create (CrocusoftReport)'
2024-02-11 13:24:42.151 +04:00 [INF] Route matched with {action = "Create", controller = "Team"}. Executing controller action with signature System.Threading.Tasks.Task`1[Microsoft.AspNetCore.Mvc.IActionResult] Create(CrocusoftReport.TeamDetails.Commands.CreateTeamCommand, System.String) on controller CrocusoftReport.Controllers.TeamController (CrocusoftReport).
2024-02-11 13:24:42.211 +04:00 [INF] Handling IdentifiedCommand`2
2024-02-11 13:24:42.222 +04:00 [INF] Entity Framework Core 6.0.10 initialized 'CrocusoftReportDbContext' using provider 'Microsoft.EntityFrameworkCore.SqlServer:6.0.9' with options: MigrationsAssembly=CrocusoftReport.Infrastructure.Migrations 
2024-02-11 13:24:42.464 +04:00 [INF] Executed DbCommand (231ms) [Parameters=[@__key_0='?' (DbType = Guid)], CommandType='"Text"', CommandTimeout='30']
SELECT TOP(2) [r].[id], [r].[key], [r].[name], [r].[time]
FROM [requests] AS [r]
WHERE [r].[key] = @__key_0
2024-02-11 13:24:42.699 +04:00 [INF] Executed DbCommand (228ms) [Parameters=[@__key_0='?' (DbType = Guid)], CommandType='"Text"', CommandTimeout='30']
SELECT TOP(2) [r].[id], [r].[key], [r].[name], [r].[time]
FROM [requests] AS [r]
WHERE [r].[key] = @__key_0
2024-02-11 13:24:43.478 +04:00 [INF] Executed DbCommand (234ms) [Parameters=[@p0='?' (DbType = Guid), @p1='?' (Size = 4000), @p2='?' (DbType = DateTime2)], CommandType='"Text"', CommandTimeout='30']
SET NOCOUNT ON;
INSERT INTO [requests] ([key], [name], [time])
VALUES (@p0, @p1, @p2);
SELECT [id]
FROM [requests]
WHERE @@ROWCOUNT = 1 AND [id] = scope_identity();
2024-02-11 13:24:43.833 +04:00 [INF] Handling CreateTeamCommand
2024-02-11 13:24:44.158 +04:00 [INF] Executed DbCommand (233ms) [Parameters=[@__Trim_0='?' (Size = 20)], CommandType='"Text"', CommandTimeout='30']
SELECT TOP(1) [t].[Id], [t].[TeamName]
FROM [teams] AS [t]
WHERE LTRIM(RTRIM(LOWER([t].[TeamName]))) = @__Trim_0
2024-02-11 13:24:44.773 +04:00 [INF] Executed DbCommand (233ms) [Parameters=[@p0='?' (Size = 20)], CommandType='"Text"', CommandTimeout='30']
SET NOCOUNT ON;
INSERT INTO [teams] ([TeamName])
VALUES (@p0);
SELECT [Id]
FROM [teams]
WHERE @@ROWCOUNT = 1 AND [Id] = scope_identity();
2024-02-11 13:24:45.007 +04:00 [INF] Handled Boolean
2024-02-11 13:24:45.008 +04:00 [INF] Handled Boolean
2024-02-11 13:24:45.024 +04:00 [INF] Executing StatusCodeResult, setting HTTP status code 204
2024-02-11 13:24:45.024 +04:00 [INF] Executed action CrocusoftReport.Controllers.TeamController.Create (CrocusoftReport) in 2873.578ms
2024-02-11 13:24:45.024 +04:00 [INF] Executed endpoint 'CrocusoftReport.Controllers.TeamController.Create (CrocusoftReport)'
2024-02-11 13:24:45.025 +04:00 [INF] Response:
StatusCode: 204
2024-02-11 13:24:45.025 +04:00 [INF] HTTP POST /team responded 204 in 2881.7754 ms
2024-02-11 13:24:45.029 +04:00 [INF] Request finished HTTP/2 POST https://localhost:7130/team application/json-patch+json 27 - 204 - - 2886.0505ms
2024-02-11 14:21:25.288 +04:00 [WRN] 'AddEntityFramework*' was called on the service provider, but 'UseInternalServiceProvider' wasn't called in the DbContext options configuration. Consider removing the 'AddEntityFramework*' call, as in most cases it's not needed and may cause conflicts with other products and services registered in the same service provider.
2024-02-11 14:21:25.357 +04:00 [INF] Migrating database associated with context CrocusoftReportDbContext
2024-02-11 14:21:26.066 +04:00 [WRN] Entity 'AppUser' has a global query filter defined and is the required end of a relationship with the entity 'ProjectUser'. This may lead to unexpected results when the required entity is filtered out. Either configure the navigation as optional, or define matching query filters for both entities in the navigation. See https://go.microsoft.com/fwlink/?linkid=2131316 for more information.
2024-02-11 14:21:26.067 +04:00 [WRN] Entity 'AppUser' has a global query filter defined and is the required end of a relationship with the entity 'Report'. This may lead to unexpected results when the required entity is filtered out. Either configure the navigation as optional, or define matching query filters for both entities in the navigation. See https://go.microsoft.com/fwlink/?linkid=2131316 for more information.
2024-02-11 14:21:26.404 +04:00 [INF] Entity Framework Core 6.0.10 initialized 'CrocusoftReportDbContext' using provider 'Microsoft.EntityFrameworkCore.SqlServer:6.0.9' with options: MigrationsAssembly=CrocusoftReport.Infrastructure.Migrations 
2024-02-11 14:21:28.511 +04:00 [INF] Executed DbCommand (260ms) [Parameters=[], CommandType='"Text"', CommandTimeout='30']
SELECT 1
2024-02-11 14:21:28.779 +04:00 [INF] Executed DbCommand (252ms) [Parameters=[], CommandType='"Text"', CommandTimeout='30']
SELECT OBJECT_ID(N'[__EFMigrationsHistory]');
2024-02-11 14:21:29.020 +04:00 [INF] Executed DbCommand (228ms) [Parameters=[], CommandType='"Text"', CommandTimeout='30']
SELECT [MigrationId], [ProductVersion]
FROM [__EFMigrationsHistory]
ORDER BY [MigrationId];
2024-02-11 14:21:29.533 +04:00 [INF] Executed DbCommand (228ms) [Parameters=[], CommandType='"Text"', CommandTimeout='30']
SELECT TOP(1) [u].[id], [u].[email], [u].[first_name], [u].[is_active], [u].[IsChanged], [u].[IsDeleted], [u].[last_name], [u].[otp], [u].[otp-expiration], [u].[password_hash], [u].[refresh_token], [u].[role_id], [u].[team_id]
FROM [users] AS [u]
WHERE [u].[IsDeleted] = CAST(0 AS bit)
2024-02-11 14:21:29.612 +04:00 [INF] Migrated database associated with context CrocusoftReportDbContext
2024-02-11 14:21:29.791 +04:00 [INF] User profile is available. Using 'C:\Users\user\AppData\Local\ASP.NET\DataProtection-Keys' as key repository and Windows DPAPI to encrypt keys at rest.
2024-02-11 14:21:30.861 +04:00 [INF] Request starting HTTP/2 GET https://localhost:7130/swagger/index.html - -
2024-02-11 14:21:30.930 +04:00 [INF] Request:
Protocol: HTTP/2
Method: GET
Scheme: https
PathBase: 
Path: /swagger/index.html
Accept: text/html,application/xhtml+xml,application/xml;q=0.9,image/avif,image/webp,image/apng,*/*;q=0.8,application/signed-exchange;v=b3;q=0.7
Host: localhost:7130
User-Agent: Mozilla/5.0 (Windows NT 10.0; Win64; x64) AppleWebKit/537.36 (KHTML, like Gecko) Chrome/121.0.0.0 Safari/537.36
:method: [Redacted]
Accept-Encoding: gzip, deflate, br
Accept-Language: ru-RU,ru;q=0.9,en-US;q=0.8,en;q=0.7
Upgrade-Insecure-Requests: [Redacted]
sec-fetch-site: [Redacted]
sec-fetch-mode: [Redacted]
sec-fetch-user: [Redacted]
sec-fetch-dest: [Redacted]
sec-ch-ua: [Redacted]
sec-ch-ua-mobile: [Redacted]
sec-ch-ua-platform: [Redacted]
2024-02-11 14:21:31.094 +04:00 [INF] Response:
StatusCode: 200
Content-Type: text/html;charset=utf-8
Date: Sun, 11 Feb 2024 10:21:30 GMT
Server: Kestrel
2024-02-11 14:21:31.095 +04:00 [INF] HTTP GET /swagger/index.html responded 200 in 169.6501 ms
2024-02-11 14:21:31.101 +04:00 [WRN] Unable to configure browser refresh script injection on the response. Consider manually adding '<script src="/_framework/aspnetcore-browser-refresh.js"></script>' to the body of the page.
2024-02-11 14:21:31.110 +04:00 [INF] Request starting HTTP/2 GET https://localhost:7130/_vs/browserLink - -
2024-02-11 14:21:31.110 +04:00 [INF] Request finished HTTP/2 GET https://localhost:7130/swagger/index.html - - - 200 - text/html;charset=utf-8 252.8185ms
2024-02-11 14:21:31.133 +04:00 [INF] Request finished HTTP/2 GET https://localhost:7130/_vs/browserLink - - - 200 - text/javascript;+charset=UTF-8 22.9120ms
2024-02-11 14:21:31.250 +04:00 [INF] Request starting HTTP/2 GET https://localhost:7130/swagger/v1/swagger.json - -
2024-02-11 14:21:31.251 +04:00 [INF] Request:
Protocol: HTTP/2
Method: GET
Scheme: https
PathBase: 
Path: /swagger/v1/swagger.json
Accept: application/json,*/*
Host: localhost:7130
User-Agent: Mozilla/5.0 (Windows NT 10.0; Win64; x64) AppleWebKit/537.36 (KHTML, like Gecko) Chrome/121.0.0.0 Safari/537.36
:method: [Redacted]
Accept-Encoding: gzip, deflate, br
Accept-Language: ru-RU,ru;q=0.9,en-US;q=0.8,en;q=0.7
Referer: [Redacted]
sec-ch-ua: [Redacted]
sec-ch-ua-mobile: [Redacted]
sec-ch-ua-platform: [Redacted]
sec-fetch-site: [Redacted]
sec-fetch-mode: [Redacted]
sec-fetch-dest: [Redacted]
2024-02-11 14:21:31.432 +04:00 [INF] Response:
StatusCode: 200
Content-Type: application/json;charset=utf-8
Date: Sun, 11 Feb 2024 10:21:30 GMT
Server: Kestrel
2024-02-11 14:21:31.432 +04:00 [INF] HTTP GET /swagger/v1/swagger.json responded 200 in 181.9563 ms
2024-02-11 14:21:31.433 +04:00 [INF] Request finished HTTP/2 GET https://localhost:7130/swagger/v1/swagger.json - - - 200 - application/json;charset=utf-8 183.0622ms
2024-02-11 14:21:45.683 +04:00 [INF] Request starting HTTP/2 GET https://localhost:7130/team/1 - -
2024-02-11 14:21:45.684 +04:00 [INF] Request:
Protocol: HTTP/2
Method: GET
Scheme: https
PathBase: 
Path: /team/1
Accept: text/plain
Host: localhost:7130
User-Agent: Mozilla/5.0 (Windows NT 10.0; Win64; x64) AppleWebKit/537.36 (KHTML, like Gecko) Chrome/121.0.0.0 Safari/537.36
:method: [Redacted]
Accept-Encoding: gzip, deflate, br
Accept-Language: ru-RU,ru;q=0.9,en-US;q=0.8,en;q=0.7
Referer: [Redacted]
sec-ch-ua: [Redacted]
sec-ch-ua-mobile: [Redacted]
sec-ch-ua-platform: [Redacted]
sec-fetch-site: [Redacted]
sec-fetch-mode: [Redacted]
sec-fetch-dest: [Redacted]
2024-02-11 14:21:45.730 +04:00 [INF] Executing endpoint 'CrocusoftReport.Controllers.TeamController.GetByIdAsync (CrocusoftReport)'
2024-02-11 14:21:45.941 +04:00 [INF] Route matched with {action = "GetById", controller = "Team"}. Executing controller action with signature System.Threading.Tasks.Task`1[CrocusoftReport.TeamDetails.ViewModels.TeamGetByIdDto] GetByIdAsync(Int32) on controller CrocusoftReport.Controllers.TeamController (CrocusoftReport).
2024-02-11 14:21:45.977 +04:00 [INF] Entity Framework Core 6.0.10 initialized 'CrocusoftReportDbContext' using provider 'Microsoft.EntityFrameworkCore.SqlServer:6.0.9' with options: MigrationsAssembly=CrocusoftReport.Infrastructure.Migrations 
2024-02-11 14:21:46.410 +04:00 [INF] Executed DbCommand (255ms) [Parameters=[@__id_0='?' (DbType = Int32)], CommandType='"Text"', CommandTimeout='30']
SELECT [t0].[Id], [t0].[TeamName], [t1].[id], [t1].[email], [t1].[first_name], [t1].[is_active], [t1].[IsChanged], [t1].[IsDeleted], [t1].[last_name], [t1].[otp], [t1].[otp-expiration], [t1].[password_hash], [t1].[refresh_token], [t1].[role_id], [t1].[team_id], [t1].[id0], [t1].[description], [t1].[is_deleted], [t1].[name]
FROM (
    SELECT TOP(1) [t].[Id], [t].[TeamName]
    FROM [teams] AS [t]
    WHERE [t].[Id] = @__id_0
) AS [t0]
LEFT JOIN (
    SELECT [u].[id], [u].[email], [u].[first_name], [u].[is_active], [u].[IsChanged], [u].[IsDeleted], [u].[last_name], [u].[otp], [u].[otp-expiration], [u].[password_hash], [u].[refresh_token], [u].[role_id], [u].[team_id], [r].[id] AS [id0], [r].[description], [r].[is_deleted], [r].[name]
    FROM [users] AS [u]
    INNER JOIN [roles] AS [r] ON [u].[role_id] = [r].[id]
    WHERE [u].[IsDeleted] = CAST(0 AS bit)
) AS [t1] ON [t0].[Id] = [t1].[team_id]
ORDER BY [t0].[Id], [t1].[id]
2024-02-11 14:21:46.507 +04:00 [INF] Executing ObjectResult, writing value of type 'CrocusoftReport.TeamDetails.ViewModels.TeamGetByIdDto'.
2024-02-11 14:21:46.671 +04:00 [INF] Executed action CrocusoftReport.Controllers.TeamController.GetByIdAsync (CrocusoftReport) in 719.2579ms
2024-02-11 14:21:46.672 +04:00 [INF] Executed endpoint 'CrocusoftReport.Controllers.TeamController.GetByIdAsync (CrocusoftReport)'
2024-02-11 14:21:46.673 +04:00 [INF] Response:
StatusCode: 200
Content-Type: application/json; charset=utf-8
Date: Sun, 11 Feb 2024 10:21:46 GMT
Server: Kestrel
Content-Length: 80
2024-02-11 14:21:46.673 +04:00 [INF] HTTP GET /team/1 responded 200 in 989.2092 ms
2024-02-11 14:21:46.676 +04:00 [INF] Request finished HTTP/2 GET https://localhost:7130/team/1 - - - 200 80 application/json;+charset=utf-8 992.6147ms
2024-02-11 14:23:06.939 +04:00 [INF] Request starting HTTP/2 POST https://localhost:7130/auth/admin/token application/json-patch+json 65
2024-02-11 14:23:06.940 +04:00 [INF] Request:
Protocol: HTTP/2
Method: POST
Scheme: https
PathBase: 
Path: /auth/admin/token
Accept: */*
Host: localhost:7130
User-Agent: Mozilla/5.0 (Windows NT 10.0; Win64; x64) AppleWebKit/537.36 (KHTML, like Gecko) Chrome/121.0.0.0 Safari/537.36
:method: [Redacted]
Accept-Encoding: gzip, deflate, br
Accept-Language: ru-RU,ru;q=0.9,en-US;q=0.8,en;q=0.7
Content-Type: application/json-patch+json
Origin: [Redacted]
Referer: [Redacted]
Content-Length: 65
sec-ch-ua: [Redacted]
sec-ch-ua-mobile: [Redacted]
sec-ch-ua-platform: [Redacted]
sec-fetch-site: [Redacted]
sec-fetch-mode: [Redacted]
sec-fetch-dest: [Redacted]
2024-02-11 14:23:06.943 +04:00 [INF] CORS policy execution successful.
2024-02-11 14:23:06.944 +04:00 [INF] Executing endpoint 'CrocusoftReport.Controllers.AuthController.Token (CrocusoftReport)'
2024-02-11 14:23:06.950 +04:00 [INF] Route matched with {action = "Token", controller = "Auth"}. Executing controller action with signature System.Threading.Tasks.Task`1[Microsoft.AspNetCore.Mvc.IActionResult] Token(CrocusoftReport.UserDetails.Commands.GetAuthorizationTokenCommand) on controller CrocusoftReport.Controllers.AuthController (CrocusoftReport).
2024-02-11 14:23:07.099 +04:00 [INF] Handling GetAuthorizationTokenCommand
2024-02-11 14:23:07.277 +04:00 [INF] Entity Framework Core 6.0.10 initialized 'CrocusoftReportDbContext' using provider 'Microsoft.EntityFrameworkCore.SqlServer:6.0.9' with options: MigrationsAssembly=CrocusoftReport.Infrastructure.Migrations 
2024-02-11 14:23:07.545 +04:00 [INF] Executed DbCommand (232ms) [Parameters=[@__request_Email_0='?' (Size = 100)], CommandType='"Text"', CommandTimeout='30']
SELECT TOP(1) [u].[id], [u].[email], [u].[first_name], [u].[is_active], [u].[IsChanged], [u].[IsDeleted], [u].[last_name], [u].[otp], [u].[otp-expiration], [u].[password_hash], [u].[refresh_token], [u].[role_id], [u].[team_id], [r].[id], [r].[description], [r].[is_deleted], [r].[name]
FROM [users] AS [u]
INNER JOIN [roles] AS [r] ON [u].[role_id] = [r].[id]
WHERE ([u].[IsDeleted] = CAST(0 AS bit)) AND ([u].[email] = @__request_Email_0)
2024-02-11 14:23:08.378 +04:00 [INF] Executed DbCommand (228ms) [Parameters=[@p12='?' (DbType = Int32), @p0='?' (Size = 100), @p1='?' (Size = 100), @p2='?' (DbType = Boolean), @p3='?' (DbType = Boolean), @p4='?' (DbType = Boolean), @p5='?' (Size = 4000), @p6='?' (Size = 4000), @p7='?' (DbType = DateTime2), @p8='?' (Size = 4000), @p9='?' (Size = 4000), @p10='?' (DbType = Int32), @p11='?' (DbType = Int32)], CommandType='"Text"', CommandTimeout='30']
SET NOCOUNT ON;
UPDATE [users] SET [email] = @p0, [first_name] = @p1, [is_active] = @p2, [IsChanged] = @p3, [IsDeleted] = @p4, [last_name] = @p5, [otp] = @p6, [otp-expiration] = @p7, [password_hash] = @p8, [refresh_token] = @p9, [role_id] = @p10, [team_id] = @p11
WHERE [id] = @p12;
SELECT @@ROWCOUNT;
2024-02-11 14:23:08.648 +04:00 [INF] Handled JwtTokenDTO
2024-02-11 14:23:08.650 +04:00 [INF] Executing OkObjectResult, writing value of type 'CrocusoftReport.UserDetails.Commands.Models.JwtTokenDTO'.
2024-02-11 14:23:08.655 +04:00 [INF] Executed action CrocusoftReport.Controllers.AuthController.Token (CrocusoftReport) in 1705.3976ms
2024-02-11 14:23:08.655 +04:00 [INF] Executed endpoint 'CrocusoftReport.Controllers.AuthController.Token (CrocusoftReport)'
2024-02-11 14:23:08.655 +04:00 [INF] Response:
StatusCode: 200
Content-Type: application/json; charset=utf-8
Date: Sun, 11 Feb 2024 10:23:07 GMT
Server: Kestrel
Access-Control-Allow-Origin: [Redacted]
Content-Length: 702
2024-02-11 14:23:08.655 +04:00 [INF] HTTP POST /auth/admin/token responded 200 in 1715.9559 ms
2024-02-11 14:23:08.656 +04:00 [INF] Request finished HTTP/2 POST https://localhost:7130/auth/admin/token application/json-patch+json 65 - 200 702 application/json;+charset=utf-8 1716.7579ms
2024-02-11 14:23:27.391 +04:00 [INF] Request starting HTTP/2 GET https://localhost:7130/auth/profile - -
2024-02-11 14:23:27.483 +04:00 [INF] Request:
Protocol: HTTP/2
Method: GET
Scheme: https
PathBase: 
Path: /auth/profile
Accept: text/plain
Host: localhost:7130
User-Agent: Mozilla/5.0 (Windows NT 10.0; Win64; x64) AppleWebKit/537.36 (KHTML, like Gecko) Chrome/121.0.0.0 Safari/537.36
:method: [Redacted]
Accept-Encoding: gzip, deflate, br
Accept-Language: ru-RU,ru;q=0.9,en-US;q=0.8,en;q=0.7
Authorization: [Redacted]
Referer: [Redacted]
sec-ch-ua: [Redacted]
sec-ch-ua-mobile: [Redacted]
sec-ch-ua-platform: [Redacted]
sec-fetch-site: [Redacted]
sec-fetch-mode: [Redacted]
sec-fetch-dest: [Redacted]
2024-02-11 14:23:27.493 +04:00 [INF] Executing endpoint 'CrocusoftReport.Controllers.AuthController.Profile (CrocusoftReport)'
2024-02-11 14:23:27.497 +04:00 [INF] Route matched with {action = "Profile", controller = "Auth"}. Executing controller action with signature System.Threading.Tasks.Task`1[CrocusoftReport.Identity.ViewModels.UserProfileDto] Profile() on controller CrocusoftReport.Controllers.AuthController (CrocusoftReport).
2024-02-11 14:23:27.503 +04:00 [INF] Entity Framework Core 6.0.10 initialized 'CrocusoftReportDbContext' using provider 'Microsoft.EntityFrameworkCore.SqlServer:6.0.9' with options: MigrationsAssembly=CrocusoftReport.Infrastructure.Migrations 
2024-02-11 14:23:27.761 +04:00 [INF] Executed DbCommand (239ms) [Parameters=[@__userId_0='?' (DbType = Int32)], CommandType='"Text"', CommandTimeout='30']
SELECT TOP(2) [u].[id], [u].[email], [u].[first_name], [u].[is_active], [u].[IsChanged], [u].[IsDeleted], [u].[last_name], [u].[otp], [u].[otp-expiration], [u].[password_hash], [u].[refresh_token], [u].[role_id], [u].[team_id], [r].[id], [r].[description], [r].[is_deleted], [r].[name], [t].[Id], [t].[TeamName]
FROM [users] AS [u]
INNER JOIN [roles] AS [r] ON [u].[role_id] = [r].[id]
LEFT JOIN [teams] AS [t] ON [u].[team_id] = [t].[Id]
WHERE ([u].[IsDeleted] = CAST(0 AS bit)) AND ([u].[id] = @__userId_0)
2024-02-11 14:23:27.777 +04:00 [INF] Executing ObjectResult, writing value of type 'CrocusoftReport.Identity.ViewModels.UserProfileDto'.
2024-02-11 14:23:27.783 +04:00 [INF] Executed action CrocusoftReport.Controllers.AuthController.Profile (CrocusoftReport) in 286.1385ms
2024-02-11 14:23:27.783 +04:00 [INF] Executed endpoint 'CrocusoftReport.Controllers.AuthController.Profile (CrocusoftReport)'
2024-02-11 14:23:27.784 +04:00 [INF] Response:
StatusCode: 200
Content-Type: application/json; charset=utf-8
Date: Sun, 11 Feb 2024 10:23:26 GMT
Server: Kestrel
Content-Length: 150
2024-02-11 14:23:27.784 +04:00 [INF] HTTP GET /auth/profile responded 200 in 301.5111 ms
2024-02-11 14:23:27.785 +04:00 [INF] Request finished HTTP/2 GET https://localhost:7130/auth/profile - - - 200 150 application/json;+charset=utf-8 393.6063ms
